{
  "total": 259984,
  "next": "https://data.ademe.fr/data-fair/api/v1/datasets/dpe-v2-tertiaire-2/lines?sort=Date_visite_diagnostiqueur&format=json&after=1625011200000%2C2973%2C695357",
  "results": [
    {
      "Type_énergie_n°1": "Électricité",
      "Date_établissement_DPE": "2021-06-30",
      "Nom__commune_(BAN)": "La Rochelle",
      "Date_réception_DPE": "2021-07-01",
      "Conso_kWhep/m²/an": 1119.3,
      "N°_voie_(BAN)": "38",
      "Année_relève_conso_énergie_n°1": 2018,
      "N°DPE": "2117T0320980Q",
      "Adresse_brute": "38 rue st jean du pérot",
      "Code_postal_(BAN)": "17000",
      "Emission_GES_kgCO2/m²/an": 36.4,
      "Surface_utile": 46.5,
      "Etiquette_GES": "D",
      "Méthode_du_DPE": "dpe tertiaire facture",
      "Statut_géocodage": "adresse géocodée ban à l'adresse",
      "Date_fin_validité_DPE": "2031-06-29",
      "Coordonnée_cartographique_X_(BAN)": 379389,
      "Conso_é_finale_énergie_n°1": 22190,
      "Nombre_occupant": 4,
      "Frais_annuel_énergie_n°1": 3082.2,
      "Conso_é_primaire_énergie_n°1": 57250.2,
      "Modèle_DPE": "DPE 2006 tertiaire et ERP",
      "Type_usage_énergie_n°1": "périmètre de l'usage inconnu",
      "Etiquette_DPE": "G",
      "Nom__commune_(Brut)": "LA ROCHELLE",
      "Année_construction": 1970,
      "N°_département_(BAN)": "17",
      "_geopoint": "46.156286109032976,-1.1563560602403693",
      "_i": 503,
      "N°_région_(BAN)": "75",
      "Identifiant__BAN": "17300_7334_00038",
      "Adresse_(BAN)": "38 Rue Saint-Jean du Perot 17000 La Rochelle",
      "Code_postal_(brut)": 17000,
      "Version_DPE": 1,
      "Date_visite_diagnostiqueur": "2021-06-30",
      "Surface_(SHON)": 51.2,
      "Coordonnée_cartographique_Y_(BAN)": 6570269.5,
      "Nom__rue_(BAN)": "Rue Saint-Jean du Perot",
      "N°_étage_appartement": 0,
      "_rand": 80301,
      "Période_construction": "1948-1974",
      "Code_INSEE_(BAN)": "17300",
      "Score_BAN": 0.79,
      "Catégorie_ERP": "5ème Catégorie",
      "Secteur_activité": "N : Restaurants et débits de boisson",
      "_score": null,
      "_id": "GuHKNa_E_zySstCFLXppw"
    },
    {
      "Type_énergie_n°1": "Électricité",
      "Type_énergie_n°2": "Gaz naturel",
      "Nom__commune_(BAN)": "Besançon",
      "Date_réception_DPE": "2023-02-14",
      "Conso_kWhep/m²/an": 593,
      "Code_postal_(BAN)": "25000",
      "Emission_GES_kgCO2/m²/an": 42.2,
      "Surface_utile": 100,
      "Date_fin_validité_DPE": "2033-02-12",
      "Coordonnée_cartographique_X_(BAN)": 928005.35,
      "Nombre_occupant": 20,
      "Conso_é_primaire_énergie_n°1": 1138410.3,
      "Conso_é_primaire_énergie_n°2": 316980,
      "_geopoint": "47.25367600970742,6.015494030748434",
      "Adresse_(BAN)": "53 rue de vesoul 25000 Besançon",
      "Version_DPE": 2.2,
      "Date_visite_diagnostiqueur": "2021-06-30",
      "N°_étage_appartement": 0,
      "Catégorie_ERP": "5ème Catégorie",
      "Secteur_activité": "M : Magasins de vente, centres commerciaux",
      "Date_établissement_DPE": "2023-02-13",
      "N°_voie_(BAN)": "53",
      "Année_relève_conso_énergie_n°2": 2023,
      "Année_relève_conso_énergie_n°1": 2022,
      "N°DPE": "2325T0479984O",
      "Adresse_brute": "53, rue de Vesoul",
      "Etiquette_GES": "D",
      "Méthode_du_DPE": "dpe tertiaire facture",
      "Statut_géocodage": "adresse géocodée ban à l'adresse",
      "Conso_é_finale_énergie_n°1": 494961,
      "Complément_d'adresse_bâtiment": "35934",
      "Conso_é_finale_énergie_n°2": 316980,
      "Frais_annuel_énergie_n°2": 35251,
      "Frais_annuel_énergie_n°1": 74244,
      "Modèle_DPE": "DPE 2006 tertiaire et ERP",
      "Type_usage_énergie_n°1": "périmètre de l'usage inconnu",
      "Etiquette_DPE": "G",
      "Type_usage_énergie_n°2": "périmètre de l'usage inconnu",
      "Nom__commune_(Brut)": "BESANCON",
      "N°_département_(BAN)": "25",
      "_i": 1248,
      "N°_région_(BAN)": "27",
      "Identifiant__BAN": "25056_5160_00053",
      "Code_postal_(brut)": 25000,
      "Surface_(SHON)": 2231,
      "Coordonnée_cartographique_Y_(BAN)": 6688061.88,
      "Nom__rue_(BAN)": "rue de vesoul",
      "_rand": 459696,
      "Période_construction": "1989-2000",
      "Code_INSEE_(BAN)": "25056",
      "Score_BAN": 0.79,
      "_score": null,
      "_id": "ya5zK7xKg_nZopbxEl4m8"
    },
    {
      "Date_établissement_DPE": "2021-08-17",
      "Nom__commune_(BAN)": "Bordeaux",
      "Date_réception_DPE": "2021-08-18",
      "N°DPE": "2133T0267231Z",
      "Adresse_brute": "Achard",
      "Code_postal_(BAN)": "33300",
      "Surface_utile": 365.2,
      "Statut_géocodage": "adresse non géocodée ban car aucune correspondance trouvée",
      "Date_fin_validité_DPE": "2031-08-16",
      "Coordonnée_cartographique_X_(BAN)": 419862.19,
      "Nombre_occupant": 1,
      "Modèle_DPE": "DPE 2006 tertiaire et ERP",
      "Nom__commune_(Brut)": "BORDEAUX",
      "Invariant_fiscal_logement": "0",
      "Année_construction": 1961,
      "N°_département_(BAN)": "33",
      "_geopoint": "44.869148006423906,-0.5479859600598848",
      "_i": 1370,
      "N°_région_(BAN)": "75",
      "Identifiant__BAN": "33063_0035",
      "Adresse_(BAN)": "Rue Achard 33300 Bordeaux",
      "Code_postal_(brut)": 33300,
      "Version_DPE": 1,
      "Date_visite_diagnostiqueur": "2021-06-30",
      "Surface_(SHON)": 365.2,
      "Coordonnée_cartographique_Y_(BAN)": 6425180.36,
      "Nom__rue_(BAN)": "Rue Achard",
      "_rand": 203373,
      "Période_construction": "1948-1974",
      "Code_INSEE_(BAN)": "33063",
      "Score_BAN": 0.66,
      "Catégorie_ERP": "1ère Catégorie",
      "Secteur_activité": "autres tertiaires non ERP",
      "_score": null,
      "_id": "vnRwY2ca1bjWxPm92kZD3"
    },
    {
      "Type_énergie_n°1": "Électricité",
      "Date_établissement_DPE": "2021-11-28",
      "Nom__commune_(BAN)": "Flers",
      "Date_réception_DPE": "2021-11-29",
      "Conso_kWhep/m²/an": 0.1,
      "N°DPE": "2161T0791338A",
      "Adresse_brute": "1, 7 et 11, rue Abbé Jean-Baptiste Lecornu\n7, rue de Messei",
      "Code_postal_(BAN)": "61100",
      "Emission_GES_kgCO2/m²/an": 0.1,
      "Surface_utile": 100,
      "Etiquette_GES": "A",
      "Méthode_du_DPE": "dpe tertiaire vierge",
      "Statut_géocodage": "adresse géocodée ban à l'adresse",
      "Date_fin_validité_DPE": "2031-11-27",
      "Coordonnée_cartographique_X_(BAN)": 438117.2,
      "Conso_é_finale_énergie_n°1": 0.1,
      "Nombre_occupant": 0,
      "Frais_annuel_énergie_n°1": 0.1,
      "Conso_é_primaire_énergie_n°1": 0.1,
      "Modèle_DPE": "DPE 2006 tertiaire et ERP",
      "Type_usage_énergie_n°1": "périmètre de l'usage inconnu",
      "Etiquette_DPE": "A",
      "Nom__commune_(Brut)": "FLERS",
      "Année_construction": 1947,
      "N°_département_(BAN)": "61",
      "_geopoint": "48.749757991488046,-0.5630680315246966",
      "_i": 1436,
      "N°_région_(BAN)": "28",
      "Identifiant__BAN": "61169_0901",
      "Adresse_(BAN)": "Rue Abbe Jean Baptiste Lecornu 61100 Flers",
      "Code_postal_(brut)": 61100,
      "Version_DPE": 1.1,
      "Date_visite_diagnostiqueur": "2021-06-30",
      "Surface_(SHON)": 668.6,
      "Coordonnée_cartographique_Y_(BAN)": 6855870.1,
      "N°_étage_appartement": 0,
      "_rand": 126770,
      "Période_construction": "avant 1948",
      "Code_INSEE_(BAN)": "61169",
      "Score_BAN": 0.65,
      "Catégorie_ERP": "5ème Catégorie",
      "Secteur_activité": "M : Magasins de vente, centres commerciaux",
      "_score": null,
      "_id": "VqaV7I-t8NneD08KmoGHz"
    },
    {
      "Type_énergie_n°1": "Électricité",
      "Type_énergie_n°2": "Gaz naturel",
      "Nom__commune_(BAN)": "Thiais",
      "Date_réception_DPE": "2022-02-03",
      "Conso_kWhep/m²/an": 125.4,
      "Code_postal_(BAN)": "94320",
      "Emission_GES_kgCO2/m²/an": 9.6,
      "Surface_utile": 116912,
      "Date_fin_validité_DPE": "2032-02-01",
      "Coordonnée_cartographique_X_(BAN)": 653587.44,
      "Nombre_occupant": 292841658,
      "Conso_é_primaire_énergie_n°1": 13061067.7,
      "Conso_é_primaire_énergie_n°2": 4186609.2,
      "Année_construction": 1971,
      "_geopoint": "48.76610003194491,2.3685400024459216",
      "Adresse_(BAN)": "Avenue de Fontainebleau 94320 Thiais",
      "Version_DPE": 2.1,
      "Date_visite_diagnostiqueur": "2021-06-30",
      "N°_étage_appartement": 0,
      "Catégorie_ERP": "1ère Catégorie",
      "Secteur_activité": "M : Magasins de vente, centres commerciaux",
      "Date_établissement_DPE": "2022-02-02",
      "Année_relève_conso_énergie_n°2": 2019,
      "Année_relève_conso_énergie_n°1": 2019,
      "N°DPE": "2294T0213066C",
      "Adresse_brute": "Centre commercial Belle Epine AVENUE DE FONTAINEBLEAU",
      "Etiquette_GES": "A",
      "Méthode_du_DPE": "dpe tertiaire facture",
      "Statut_géocodage": "adresse géocodée ban à l'adresse",
      "Conso_é_finale_énergie_n°1": 5678725.1,
      "Conso_é_finale_énergie_n°2": 4186609.2,
      "Frais_annuel_énergie_n°2": 214789.5,
      "Frais_annuel_énergie_n°1": 318065,
      "Modèle_DPE": "DPE 2006 tertiaire et ERP",
      "Type_usage_énergie_n°1": "périmètre de l'usage inconnu",
      "Etiquette_DPE": "C",
      "Type_usage_énergie_n°2": "périmètre de l'usage inconnu",
      "Nom__commune_(Brut)": "THIAIS CEDEX",
      "N°_département_(BAN)": "94",
      "_i": 1704,
      "N°_région_(BAN)": "11",
      "Identifiant__BAN": "94073_3550",
      "Code_postal_(brut)": 94531,
      "Surface_(SHON)": 18742,
      "Coordonnée_cartographique_Y_(BAN)": 6851963.13,
      "_rand": 173523,
      "Période_construction": "1948-1974",
      "Code_INSEE_(BAN)": "94073",
      "Score_BAN": 0.64,
      "_score": null,
      "_id": "yFiDWUdVlPu5VS_tJt3rQ"
    },
    {
      "Type_énergie_n°1": "Électricité",
      "Date_établissement_DPE": "2022-11-13",
      "Nom__commune_(BAN)": "Armentières",
      "Date_réception_DPE": "2022-11-14",
      "Conso_kWhep/m²/an": 180.2,
      "N°_voie_(BAN)": "87",
      "Année_relève_conso_énergie_n°1": 2022,
      "N°DPE": "2259T2681294P",
      "Adresse_brute": "87 rue Nationale Avenue Mitterand RDC Commercial",
      "Code_postal_(BAN)": "59280",
      "Emission_GES_kgCO2/m²/an": 5,
      "Surface_utile": 100,
      "Etiquette_GES": "A",
      "Méthode_du_DPE": "dpe tertiaire facture dans un bâtiment de logement",
      "Statut_géocodage": "adresse géocodée ban à l'adresse",
      "Date_fin_validité_DPE": "2032-11-12",
      "Coordonnée_cartographique_X_(BAN)": 691348.39,
      "Conso_é_finale_énergie_n°1": 3288,
      "Nombre_occupant": 0,
      "Complément_d'adresse_bâtiment": "209PND",
      "Frais_annuel_énergie_n°1": 954,
      "Conso_é_primaire_énergie_n°1": 7562.4,
      "Modèle_DPE": "DPE 2006 tertiaire et ERP",
      "Type_usage_énergie_n°1": "périmètre de l'usage inconnu",
      "Etiquette_DPE": "C",
      "Nom__commune_(Brut)": "ARMENTIERES, France",
      "N°_département_(BAN)": "59",
      "_geopoint": "50.68948297198467,2.877784945479084",
      "_i": 1737,
      "N°_région_(BAN)": "32",
      "Identifiant__BAN": "59017_xhjjym_00087",
      "Adresse_(BAN)": "87 Avenue du President Francois Mitterand 59280 Armentières",
      "Code_postal_(brut)": 59280,
      "Version_DPE": 2.2,
      "Date_visite_diagnostiqueur": "2021-06-30",
      "Surface_(SHON)": 38.2,
      "Coordonnée_cartographique_Y_(BAN)": 7065859.38,
      "Nom__rue_(BAN)": "Avenue du President Francois Mitterand",
      "N°_étage_appartement": 0,
      "_rand": 439073,
      "Période_construction": "avant 1948",
      "Code_INSEE_(BAN)": "59017",
      "Score_BAN": 0.69,
      "Catégorie_ERP": "5ème Catégorie",
      "Secteur_activité": "W : Administrations, banques, bureaux",
      "_score": null,
      "_id": "Y66So5m49BOPmV08f-YT5"
    },
    {
      "Type_énergie_n°1": "Gaz naturel",
      "Type_énergie_n°2": "Électricité",
      "Nom__commune_(BAN)": "Nancy",
      "Date_réception_DPE": "2021-12-01",
      "Conso_kWhep/m²/an": 179,
      "Code_postal_(BAN)": "54000",
      "Emission_GES_kgCO2/m²/an": 37,
      "Surface_utile": 1410,
      "Date_fin_validité_DPE": "2031-11-29",
      "Coordonnée_cartographique_X_(BAN)": 934862.29,
      "Nombre_occupant": 200,
      "Conso_é_primaire_énergie_n°1": 160.2,
      "Conso_é_primaire_énergie_n°2": 18.9,
      "Année_construction": 1910,
      "_geopoint": "48.68165898315928,6.191062056957725",
      "Adresse_(BAN)": "1 Rue du Docteur Heydenreich 54000 Nancy",
      "Version_DPE": 1.1,
      "Date_visite_diagnostiqueur": "2021-06-30",
      "Catégorie_ERP": "1ère Catégorie",
      "Type_énergie_principale_chauffage": "Gaz naturel",
      "Secteur_activité": "GHR : Enseignement",
      "Date_établissement_DPE": "2021-11-30",
      "N°_voie_(BAN)": "1",
      "Année_relève_conso_énergie_n°2": 2017,
      "Année_relève_conso_énergie_n°1": 2017,
      "N°DPE": "2154T0821051O",
      "Adresse_brute": "1 Rue du Docteur Heydenreich",
      "Etiquette_GES": "D",
      "Méthode_du_DPE": "dpe tertiaire facture",
      "Statut_géocodage": "adresse géocodée ban à l'adresse",
      "Conso_é_finale_énergie_n°1": 225940,
      "Conso_é_finale_énergie_n°2": 11603.7,
      "Frais_annuel_énergie_n°2": 1786.4,
      "Frais_annuel_énergie_n°1": 25196.8,
      "Modèle_DPE": "DPE 2006 tertiaire et ERP",
      "Type_usage_énergie_n°1": "Chauffage",
      "Etiquette_DPE": "C",
      "Type_usage_énergie_n°2": "Chauffage",
      "Nom__commune_(Brut)": "Nancy",
      "N°_département_(BAN)": "54",
      "_i": 2019,
      "N°_région_(BAN)": "44",
      "Identifiant__BAN": "54395_txmpuy_00001",
      "Code_postal_(brut)": 54000,
      "Surface_(SHON)": 1410,
      "Coordonnée_cartographique_Y_(BAN)": 6847135.54,
      "Nom__rue_(BAN)": "Rue du Docteur Heydenreich",
      "_rand": 230174,
      "Période_construction": "avant 1948",
      "Code_INSEE_(BAN)": "54395",
      "Score_BAN": 0.67,
      "_score": null,
      "_id": "f1cQXiJqbEL2eFVp57nMc"
    },
    {
      "Type_énergie_n°1": "Électricité",
      "Date_établissement_DPE": "2021-07-04",
      "Nom__commune_(BAN)": "Mercuès",
      "Date_réception_DPE": "2021-07-05",
      "Conso_kWhep/m²/an": 437.9,
      "N°_voie_(BAN)": "364",
      "Année_relève_conso_énergie_n°1": 2021,
      "N°DPE": "2146T0010117M",
      "Adresse_brute": "Local commercial RDC 364 Grand Rue",
      "Code_postal_(BAN)": "46090",
      "Emission_GES_kgCO2/m²/an": 12.2,
      "Surface_utile": 100,
      "Etiquette_GES": "C",
      "Statut_géocodage": "adresse géocodée ban à l'adresse",
      "Date_fin_validité_DPE": "2031-07-03",
      "Coordonnée_cartographique_X_(BAN)": 571674.34,
      "Conso_é_finale_énergie_n°1": 23875,
      "Frais_annuel_énergie_n°1": 4532.2,
      "Conso_é_primaire_énergie_n°1": 54912.5,
      "Modèle_DPE": "DPE 2006 tertiaire et ERP",
      "Type_usage_énergie_n°1": "périmètre de l'usage inconnu",
      "Etiquette_DPE": "F",
      "Nom__commune_(Brut)": "Mercuès",
      "Année_construction": 1948,
      "N°_département_(BAN)": "46",
      "_geopoint": "44.49658098447193,1.3858809919080397",
      "_i": 2191,
      "N°_région_(BAN)": "76",
      "Identifiant__BAN": "46191_0014_00364",
      "Adresse_(BAN)": "364 Grand Rue 46090 Mercuès",
      "Code_postal_(brut)": 46090,
      "Version_DPE": 1,
      "Date_visite_diagnostiqueur": "2021-06-30",
      "Coordonnée_cartographique_Y_(BAN)": 6378813.82,
      "Nom__rue_(BAN)": "Grand Rue",
      "N°_étage_appartement": 0,
      "_rand": 151010,
      "Période_construction": "1948-1974",
      "Code_INSEE_(BAN)": "46191",
      "Score_BAN": 0.49,
      "Catégorie_ERP": "1ère Catégorie",
      "Secteur_activité": "J : Structures d’accueil pour personnes âgées ou personnes handicapées",
      "_score": null,
      "_id": "MCZky59k-ziO5T_5QpvNr"
    },
    {
      "Type_énergie_n°1": "Électricité",
      "Type_énergie_n°2": "Gaz naturel",
      "Nom__commune_(BAN)": "Colmar",
      "Date_réception_DPE": "2021-11-07",
      "Conso_kWhep/m²/an": 393.2,
      "Code_postal_(BAN)": "68000",
      "Emission_GES_kgCO2/m²/an": 33,
      "Surface_utile": 100,
      "Date_fin_validité_DPE": "2031-11-05",
      "Coordonnée_cartographique_X_(BAN)": 1022226.9,
      "Nombre_occupant": 0,
      "Conso_é_primaire_énergie_n°1": 57500,
      "Conso_é_primaire_énergie_n°2": 22522.5,
      "Année_construction": 1948,
      "_geopoint": "48.08578195746614,7.329752020999556",
      "Adresse_(BAN)": "2 Rue des Marguerites 68000 Colmar",
      "Version_DPE": 1.1,
      "Date_visite_diagnostiqueur": "2021-06-30",
      "N°_étage_appartement": 0,
      "Catégorie_ERP": "5ème Catégorie",
      "Secteur_activité": "L : Salles d'auditions, de conférences, de réunions, de spectacles ou à usage multiple",
      "Complément_d'adresse_logement": "Bat. N/A; Etage null; Porte NC",
      "Date_établissement_DPE": "2021-11-06",
      "N°_voie_(BAN)": "2",
      "N°DPE": "2168T0643938B",
      "Adresse_brute": "2 RUE DES MARGUERITES",
      "Etiquette_GES": "D",
      "Méthode_du_DPE": "dpe tertiaire facture",
      "Statut_géocodage": "adresse géocodée ban à l'adresse",
      "Conso_é_finale_énergie_n°1": 25000,
      "Conso_é_finale_énergie_n°2": 22522.5,
      "Frais_annuel_énergie_n°2": 2506,
      "Frais_annuel_énergie_n°1": 4091,
      "Modèle_DPE": "DPE 2006 tertiaire et ERP",
      "Type_usage_énergie_n°1": "périmètre de l'usage inconnu",
      "Etiquette_DPE": "F",
      "Type_usage_énergie_n°2": "périmètre de l'usage inconnu",
      "Nom__commune_(Brut)": "COLMAR",
      "N°_département_(BAN)": "68",
      "_i": 2227,
      "N°_région_(BAN)": "44",
      "Identifiant__BAN": "68066_2615_00002",
      "Code_postal_(brut)": 68000,
      "Surface_(SHON)": 185,
      "Coordonnée_cartographique_Y_(BAN)": 6784992.78,
      "Nom__rue_(BAN)": "Rue des Marguerites",
      "_rand": 740607,
      "Période_construction": "1948-1974",
      "Code_INSEE_(BAN)": "68066",
      "Score_BAN": 0.61,
      "_score": null,
      "_id": "YFruXLGjAB6AIc1Ru3HcR"
    },
    {
      "Date_établissement_DPE": "2022-02-13",
      "Nom__commune_(BAN)": "Hyères",
      "Date_réception_DPE": "2022-02-14",
      "N°_voie_(BAN)": "3",
      "N°DPE": "2283T0290948D",
      "Adresse_brute": "3 RUE DU HUIT MAI",
      "Code_postal_(BAN)": "83400",
      "Surface_utile": 100,
      "Méthode_du_DPE": "dpe tertiaire vierge",
      "Statut_géocodage": "adresse géocodée ban à l'adresse",
      "Date_fin_validité_DPE": "2032-02-12",
      "Coordonnée_cartographique_X_(BAN)": 954809.94,
      "Nombre_occupant": 0,
      "Modèle_DPE": "DPE 2006 tertiaire et ERP",
      "Nom__commune_(Brut)": "HYERES",
      "Année_construction": 1947,
      "N°_département_(BAN)": "83",
      "_geopoint": "43.115681011564064,6.1292049851229615",
      "_i": 2737,
      "N°_région_(BAN)": "93",
      "Identifiant__BAN": "83069_1195_00003",
      "Adresse_(BAN)": "3 Avenue du Huit Mai 83400 Hyères",
      "Code_postal_(brut)": 83400,
      "Version_DPE": 2.1,
      "Date_visite_diagnostiqueur": "2021-06-30",
      "Surface_(SHON)": 106.4,
      "Coordonnée_cartographique_Y_(BAN)": 6229095.47,
      "Nom__rue_(BAN)": "Avenue du Huit Mai",
      "N°_étage_appartement": 0,
      "_rand": 239920,
      "Période_construction": "avant 1948",
      "Code_INSEE_(BAN)": "83069",
      "Score_BAN": 0.63,
      "Catégorie_ERP": "5ème Catégorie",
      "Secteur_activité": "X : Établissements sportifs couverts",
      "_score": null,
      "_id": "F-LR8MwwZTzj1TvTlMEnW"
    },
    {
      "Type_énergie_n°1": "Électricité",
      "Type_énergie_n°2": "Gaz naturel",
      "Nom__commune_(BAN)": "Colmar",
      "Date_réception_DPE": "2021-11-14",
      "Conso_kWhep/m²/an": 112.8,
      "Code_postal_(BAN)": "68000",
      "Emission_GES_kgCO2/m²/an": 8.9,
      "Surface_utile": 100,
      "Date_fin_validité_DPE": "2031-11-12",
      "Coordonnée_cartographique_X_(BAN)": 1022658.77,
      "Nombre_occupant": 0,
      "Conso_é_primaire_énergie_n°1": 145429,
      "Conso_é_primaire_énergie_n°2": 50102.7,
      "Année_construction": 1948,
      "_geopoint": "48.055996020686884,7.333118956801716",
      "Adresse_(BAN)": "205 Route de Rouffach 68000 Colmar",
      "Version_DPE": 1.1,
      "Date_visite_diagnostiqueur": "2021-06-30",
      "N°_étage_appartement": 0,
      "Catégorie_ERP": "5ème Catégorie",
      "Secteur_activité": "X : Établissements sportifs couverts",
      "Complément_d'adresse_logement": "Bat. N/A; Etage null; Porte NC",
      "Date_établissement_DPE": "2021-11-13",
      "N°_voie_(BAN)": "205",
      "N°DPE": "2168T0682762H",
      "Adresse_brute": "205 route de Rouffach",
      "Etiquette_GES": "B",
      "Méthode_du_DPE": "dpe tertiaire facture",
      "Statut_géocodage": "adresse géocodée ban à l'adresse",
      "Conso_é_finale_énergie_n°1": 63230,
      "Conso_é_finale_énergie_n°2": 50102.7,
      "Frais_annuel_énergie_n°2": 3504,
      "Frais_annuel_énergie_n°1": 10346,
      "Modèle_DPE": "DPE 2006 tertiaire et ERP",
      "Type_usage_énergie_n°1": "périmètre de l'usage inconnu",
      "Etiquette_DPE": "C",
      "Type_usage_énergie_n°2": "périmètre de l'usage inconnu",
      "Nom__commune_(Brut)": "COLMAR",
      "N°_département_(BAN)": "68",
      "_i": 2846,
      "N°_région_(BAN)": "44",
      "Identifiant__BAN": "68066_3600_00205",
      "Code_postal_(brut)": 68000,
      "Surface_(SHON)": 1576,
      "Coordonnée_cartographique_Y_(BAN)": 6781701.48,
      "Nom__rue_(BAN)": "Route de Rouffach",
      "_rand": 120511,
      "Période_construction": "1948-1974",
      "Code_INSEE_(BAN)": "68066",
      "Score_BAN": 0.71,
      "_score": null,
      "_id": "MLBgT4cfOdMXacJwxUhPs"
    },
    {
      "Type_énergie_n°1": "Électricité",
      "Date_établissement_DPE": "2021-12-05",
      "Nom__commune_(BAN)": "Enghien-les-Bains",
      "Date_réception_DPE": "2021-12-06",
      "Conso_kWhep/m²/an": 464.2,
      "N°_voie_(BAN)": "3",
      "N°DPE": "2195T0854963L",
      "Adresse_brute": "3 rue de l’Arrivée",
      "Code_postal_(BAN)": "95880",
      "Emission_GES_kgCO2/m²/an": 12.9,
      "Surface_utile": 100,
      "Etiquette_GES": "C",
      "Méthode_du_DPE": "dpe tertiaire facture",
      "Statut_géocodage": "adresse géocodée ban à l'adresse",
      "Date_fin_validité_DPE": "2031-12-04",
      "Coordonnée_cartographique_X_(BAN)": 649329.02,
      "Conso_é_finale_énergie_n°1": 15320,
      "Nombre_occupant": 0,
      "Frais_annuel_énergie_n°1": 4444,
      "Conso_é_primaire_énergie_n°1": 35236,
      "Modèle_DPE": "DPE 2006 tertiaire et ERP",
      "Type_usage_énergie_n°1": "périmètre de l'usage inconnu",
      "Etiquette_DPE": "F",
      "Nom__commune_(Brut)": "ENGHIEN-LES-BAINS",
      "Année_construction": 1947,
      "N°_département_(BAN)": "95",
      "_geopoint": "48.97190798083281,2.307872019634355",
      "_i": 2973,
      "N°_région_(BAN)": "11",
      "Identifiant__BAN": "95210_0070_00003",
      "Adresse_(BAN)": "3 Rue de l’Arrivée 95880 Enghien-les-Bains",
      "Code_postal_(brut)": 95880,
      "Version_DPE": 2,
      "Date_visite_diagnostiqueur": "2021-06-30",
      "Surface_(SHON)": 69,
      "Coordonnée_cartographique_Y_(BAN)": 6874884.71,
      "Nom__rue_(BAN)": "Rue de l’Arrivée",
      "N°_étage_appartement": 0,
      "_rand": 695357,
      "Période_construction": "avant 1948",
      "Code_INSEE_(BAN)": "95210",
      "Score_BAN": 0.58,
      "Catégorie_ERP": "5ème Catégorie",
      "Secteur_activité": "M : Magasins de vente, centres commerciaux",
      "_score": null,
      "_id": "iuXv_unhOV9NiIoU_opFL"
    }
  ]
}